^C:\USERS\RAMI\DESKTOP\SFML\SFML_TEMPLATE\SFML_TEMPLATE\RELEASE\MAIN.OBJ
C:\USERS\RAMI\DESKTOP\SFML\SFML_TEMPLATE\RELEASE\SFML_TEMPLATE.EXE
C:\USERS\RAMI\DESKTOP\SFML\SFML_TEMPLATE\RELEASE\SFML_TEMPLATE.PDB
